PostgreSQL and RStudio: I know we match · LB
…
#combine it all togather
person <- tibble(person_id = person_id,
                 gender_concept_id = sample(gender_concept_id, 100, replace = TRUE),
                 year_of_birth = year_of_birth,
                 month_of_birth = month_of_birth,
                 day_of_birth = day_of_birth,
                 ethnicity_concept_id = sample(ethnicity_concept_id, 100, replace = TRUE),
                 race_concept_id = sample(race_concept_id, 100, replace = TRUE))

head(person, 25)

## # A tibble: 25 x 7
##    person_id gender_concept_… year_of_birth month_of_birth day_of_birth
##        <int>            <int>         <int>          <int>        <int>
##  1  41470777             8532          1947              5           28
##  2  71954847             8507          1977              9           13
##  3  70480354               NA          1986              3            8
##  4  23693378             8507          1965              5           24
##  5  51833113               NA          1981              6           26
##  6  10775969             8532          1965              1           27
##  7  49074903             8532          1948              3           17
##  8  52489188             8532          1980              2           11
##  9  26350094             8532          1951              4           29
## 10  66737271             8507          1976              8           24
## # … with 15 more rows, and 2 more variables: ethnicity_concept_id <int>,
## #   race_concept_id <int>
…
